0.0000E+00 5.0000E-01   0.0000E+00
3.3379E-03 5.0000E-01   6.2106E-03
7.6685E-03 5.0000E-01   1.4062E-02
1.2474E-02 5.0000E-01   2.2507E-02
1.7618E-02 5.0000E-01   3.1232E-02
2.3027E-02 5.0000E-01   4.0067E-02
2.8659E-02 5.0000E-01   4.8894E-02
3.4482E-02 5.0000E-01   5.7632E-02
4.0475E-02 5.0000E-01   6.6218E-02
4.6619E-02 5.0000E-01   7.4601E-02
5.2902E-02 5.0000E-01   8.2742E-02
5.9312E-02 5.0000E-01   9.0610E-02
6.5840E-02 5.0000E-01   9.8180E-02
7.2478E-02 5.0000E-01   1.0543E-01
7.9219E-02 5.0000E-01   1.1235E-01
8.6056E-02 5.0000E-01   1.1892E-01
9.2986E-02 5.0000E-01   1.2515E-01
1.0000E-01 5.0000E-01   1.3101E-01
1.0710E-01 5.0000E-01   1.3651E-01
1.1428E-01 5.0000E-01   1.4165E-01
1.2154E-01 5.0000E-01   1.4644E-01
1.2887E-01 5.0000E-01   1.5086E-01
1.3626E-01 5.0000E-01   1.5493E-01
1.4373E-01 5.0000E-01   1.5866E-01
1.5126E-01 5.0000E-01   1.6204E-01
1.5886E-01 5.0000E-01   1.6509E-01
1.6651E-01 5.0000E-01   1.6782E-01
1.7423E-01 5.0000E-01   1.7022E-01
1.8200E-01 5.0000E-01   1.7231E-01
1.8982E-01 5.0000E-01   1.7410E-01
1.9771E-01 5.0000E-01   1.7559E-01
2.0564E-01 5.0000E-01   1.7680E-01
2.1363E-01 5.0000E-01   1.7772E-01
2.2166E-01 5.0000E-01   1.7836E-01
2.2975E-01 5.0000E-01   1.7874E-01
2.3788E-01 5.0000E-01   1.7884E-01
2.4606E-01 5.0000E-01   1.7869E-01
2.5428E-01 5.0000E-01   1.7828E-01
2.6255E-01 5.0000E-01   1.7762E-01
2.7086E-01 5.0000E-01   1.7670E-01
2.7922E-01 5.0000E-01   1.7553E-01
2.8762E-01 5.0000E-01   1.7411E-01
2.9606E-01 5.0000E-01   1.7245E-01
3.0453E-01 5.0000E-01   1.7053E-01
3.1305E-01 5.0000E-01   1.6836E-01
3.2161E-01 5.0000E-01   1.6593E-01
3.3020E-01 5.0000E-01   1.6325E-01
3.3884E-01 5.0000E-01   1.6031E-01
3.4751E-01 5.0000E-01   1.5710E-01
3.5621E-01 5.0000E-01   1.5363E-01
3.6495E-01 5.0000E-01   1.4988E-01
3.7373E-01 5.0000E-01   1.4586E-01
3.8254E-01 5.0000E-01   1.4155E-01
3.9139E-01 5.0000E-01   1.3696E-01
4.0026E-01 5.0000E-01   1.3207E-01
4.0918E-01 5.0000E-01   1.2688E-01
4.1812E-01 5.0000E-01   1.2139E-01
4.2709E-01 5.0000E-01   1.1560E-01
4.3610E-01 5.0000E-01   1.0948E-01
4.4514E-01 5.0000E-01   1.0305E-01
4.5421E-01 5.0000E-01   9.6289E-02
4.6331E-01 5.0000E-01   8.9203E-02
4.7244E-01 5.0000E-01   8.1785E-02
4.8160E-01 5.0000E-01   7.4033E-02
4.9078E-01 5.0000E-01   6.5945E-02
5.0000E-01 5.0000E-01   5.7519E-02
5.0922E-01 5.0000E-01   4.8784E-02
5.1840E-01 5.0000E-01   3.9773E-02
5.2756E-01 5.0000E-01   3.0493E-02
5.3669E-01 5.0000E-01   2.0955E-02
5.4579E-01 5.0000E-01   1.1172E-02
5.5486E-01 5.0000E-01   1.1550E-03
5.6390E-01 5.0000E-01  -9.0795E-03
5.7291E-01 5.0000E-01  -1.9515E-02
5.8188E-01 5.0000E-01  -3.0132E-02
5.9082E-01 5.0000E-01  -4.0909E-02
5.9974E-01 5.0000E-01  -5.1824E-02
6.0861E-01 5.0000E-01  -6.2849E-02
6.1746E-01 5.0000E-01  -7.3957E-02
6.2627E-01 5.0000E-01  -8.5117E-02
6.3505E-01 5.0000E-01  -9.6294E-02
6.4379E-01 5.0000E-01  -1.0745E-01
6.5249E-01 5.0000E-01  -1.1856E-01
6.6116E-01 5.0000E-01  -1.2956E-01
6.6980E-01 5.0000E-01  -1.4042E-01
6.7839E-01 5.0000E-01  -1.5109E-01
6.8695E-01 5.0000E-01  -1.6153E-01
6.9547E-01 5.0000E-01  -1.7167E-01
7.0394E-01 5.0000E-01  -1.8147E-01
7.1238E-01 5.0000E-01  -1.9087E-01
7.2078E-01 5.0000E-01  -1.9982E-01
7.2914E-01 5.0000E-01  -2.0826E-01
7.3745E-01 5.0000E-01  -2.1613E-01
7.4572E-01 5.0000E-01  -2.2338E-01
7.5394E-01 5.0000E-01  -2.2995E-01
7.6212E-01 5.0000E-01  -2.3580E-01
7.7025E-01 5.0000E-01  -2.4086E-01
7.7834E-01 5.0000E-01  -2.4509E-01
7.8637E-01 5.0000E-01  -2.4845E-01
7.9436E-01 5.0000E-01  -2.5090E-01
8.0229E-01 5.0000E-01  -2.5242E-01
8.1018E-01 5.0000E-01  -2.5296E-01
8.1800E-01 5.0000E-01  -2.5253E-01
8.2577E-01 5.0000E-01  -2.5111E-01
8.3349E-01 5.0000E-01  -2.4869E-01
8.4114E-01 5.0000E-01  -2.4528E-01
8.4874E-01 5.0000E-01  -2.4091E-01
8.5627E-01 5.0000E-01  -2.3559E-01
8.6374E-01 5.0000E-01  -2.2936E-01
8.7113E-01 5.0000E-01  -2.2225E-01
8.7846E-01 5.0000E-01  -2.1433E-01
8.8572E-01 5.0000E-01  -2.0564E-01
8.9290E-01 5.0000E-01  -1.9625E-01
9.0000E-01 5.0000E-01  -1.8622E-01
9.0701E-01 5.0000E-01  -1.7564E-01
9.1394E-01 5.0000E-01  -1.6458E-01
9.2078E-01 5.0000E-01  -1.5312E-01
9.2752E-01 5.0000E-01  -1.4134E-01
9.3416E-01 5.0000E-01  -1.2932E-01
9.4069E-01 5.0000E-01  -1.1716E-01
9.4710E-01 5.0000E-01  -1.0493E-01
9.5338E-01 5.0000E-01  -9.2722E-02
9.5953E-01 5.0000E-01  -8.0615E-02
9.6552E-01 5.0000E-01  -6.8690E-02
9.7134E-01 5.0000E-01  -5.7036E-02
9.7697E-01 5.0000E-01  -4.5738E-02
9.8238E-01 5.0000E-01  -3.4896E-02
9.8753E-01 5.0000E-01  -2.4620E-02
9.9233E-01 5.0000E-01  -1.5074E-02
9.9666E-01 5.0000E-01  -6.5328E-03
1.0000E+00 5.0000E-01   0.0000E+00