 Y     vy
  0.0000000E+00  0.0000000E+00
  5.0000001E-02 -1.8999999E-04
  0.1000000     -6.4999994E-04
  0.1500000     -1.1900000E-03
  0.2000000     -1.6600000E-03
  0.2500000     -1.9100000E-03
  0.3000000     -1.8500000E-03
  0.3500000     -1.4700000E-03
  0.4000000     -8.1000000E-04
  0.4500000      2.9999999E-05
  0.5000000      9.4999996E-04
  0.5500000      1.8000001E-03
  0.6000000      2.4500000E-03
  0.6500000      2.8299999E-03
  0.7000000      2.8799998E-03
  0.7500000      2.5999998E-03
  0.8000000      2.0699999E-03
  0.8500000      1.4000000E-03
  0.9000000      7.1999995E-04
  0.9500000      2.1000000E-04
   1.000000      0.0000000E+00
