 X     WALL_SHEAR
  0.0000000E+00 -1.5000001E-02
   1.000000     -1.1500001E-02
   2.000000     -9.2500001E-03
   3.000000     -7.0000002E-03
   4.000000     -3.5000001E-03
   4.500000     -1.0000000E-03
   5.000000      2.0000001E-04
   5.500000      1.0000000E-03
   6.000000      1.0500000E-03
   6.500000      1.1000001E-03
   7.000000      1.2500001E-03
   7.500000      1.5000000E-03
   8.000000      1.6000001E-03
   9.000000      1.5000000E-03
   10.00000      5.0000002E-04
   11.00000     -5.0000002E-04
   12.00000     -1.3500000E-03
   13.00000     -1.9000000E-03
   14.00000     -2.2000002E-03
   15.00000     -2.5000002E-03
